{
	"ImportPath": "g.ghn.vn/go-training/tientp",
	"GoVersion": "go1.8",
	"GodepVersion": "v79",
	"Deps": [
		{
			"ImportPath": "g.ghn.vn/go-common/encryption",
			"Rev": "18202d9e743c0d30eb7aa8bb497c87fc4ac539b4"
		},
		{
			"ImportPath": "g.ghn.vn/go-common/profiler/echo.v3",
			"Rev": "dc724a2c4c16efa2c864abe9b042f594ebd263c2"
		},
		{
			"ImportPath": "github.com/dgrijalva/jwt-go",
			"Comment": "v3.0.0-18-g6c8dedd",
			"Rev": "6c8dedd55f8a2e41f605de6d5d66e51ed1f299fc"
		},
		{
			"ImportPath": "github.com/fsnotify/fsnotify",
			"Comment": "v1.4.2-3-ga904159",
			"Rev": "a904159b9206978bb6d53fcc7a769e5cd726c737"
		},
		{
			"ImportPath": "github.com/go-playground/locales",
			"Comment": "v0.11.1-2-g1e5f1161",
			"Rev": "1e5f1161c6416a5ff48840eb8724a394e48cc534"
		},
		{
			"ImportPath": "github.com/go-playground/locales/currency",
			"Comment": "v0.11.1-2-g1e5f1161",
			"Rev": "1e5f1161c6416a5ff48840eb8724a394e48cc534"
		},
		{
			"ImportPath": "github.com/go-playground/universal-translator",
			"Comment": "v0.16.0-1-g7120149",
			"Rev": "71201497bace774495daed26a3874fd339e0b538"
		},
		{
			"ImportPath": "github.com/go-redis/redis",
			"Comment": "v6.5.7",
			"Rev": "19c1c2272e00c1aaa903cf574c746cd449f9cd3c"
		},
		{
			"ImportPath": "github.com/go-redis/redis/internal",
			"Comment": "v6.5.7",
			"Rev": "19c1c2272e00c1aaa903cf574c746cd449f9cd3c"
		},
		{
			"ImportPath": "github.com/go-redis/redis/internal/consistenthash",
			"Comment": "v6.5.7",
			"Rev": "19c1c2272e00c1aaa903cf574c746cd449f9cd3c"
		},
		{
			"ImportPath": "github.com/go-redis/redis/internal/hashtag",
			"Comment": "v6.5.7",
			"Rev": "19c1c2272e00c1aaa903cf574c746cd449f9cd3c"
		},
		{
			"ImportPath": "github.com/go-redis/redis/internal/pool",
			"Comment": "v6.5.7",
			"Rev": "19c1c2272e00c1aaa903cf574c746cd449f9cd3c"
		},
		{
			"ImportPath": "github.com/go-redis/redis/internal/proto",
			"Comment": "v6.5.7",
			"Rev": "19c1c2272e00c1aaa903cf574c746cd449f9cd3c"
		},
		{
			"ImportPath": "github.com/hashicorp/go-version",
			"Rev": "03c5bf6be031b6dd45afec16b1cf94fc8938bc77"
		},
		{
			"ImportPath": "github.com/hashicorp/hcl",
			"Rev": "630949a3c5fa3c613328e1b8256052cbc2327c9b"
		},
		{
			"ImportPath": "github.com/hashicorp/hcl/hcl/ast",
			"Rev": "630949a3c5fa3c613328e1b8256052cbc2327c9b"
		},
		{
			"ImportPath": "github.com/hashicorp/hcl/hcl/parser",
			"Rev": "630949a3c5fa3c613328e1b8256052cbc2327c9b"
		},
		{
			"ImportPath": "github.com/hashicorp/hcl/hcl/scanner",
			"Rev": "630949a3c5fa3c613328e1b8256052cbc2327c9b"
		},
		{
			"ImportPath": "github.com/hashicorp/hcl/hcl/strconv",
			"Rev": "630949a3c5fa3c613328e1b8256052cbc2327c9b"
		},
		{
			"ImportPath": "github.com/hashicorp/hcl/hcl/token",
			"Rev": "630949a3c5fa3c613328e1b8256052cbc2327c9b"
		},
		{
			"ImportPath": "github.com/hashicorp/hcl/json/parser",
			"Rev": "630949a3c5fa3c613328e1b8256052cbc2327c9b"
		},
		{
			"ImportPath": "github.com/hashicorp/hcl/json/scanner",
			"Rev": "630949a3c5fa3c613328e1b8256052cbc2327c9b"
		},
		{
			"ImportPath": "github.com/hashicorp/hcl/json/token",
			"Rev": "630949a3c5fa3c613328e1b8256052cbc2327c9b"
		},
		{
			"ImportPath": "github.com/labstack/echo",
			"Comment": "v3.1.0-9-g10809fa",
			"Rev": "10809fad77da243a481fe59879cc97eb7dd1d6f2"
		},
		{
			"ImportPath": "github.com/labstack/echo/middleware",
			"Comment": "v3.1.0-9-g10809fa",
			"Rev": "10809fad77da243a481fe59879cc97eb7dd1d6f2"
		},
		{
			"ImportPath": "github.com/labstack/gommon/bytes",
			"Comment": "v0.2.1",
			"Rev": "1121fd3e243c202482226a7afe4dcd07ffc4139a"
		},
		{
			"ImportPath": "github.com/labstack/gommon/color",
			"Comment": "v0.2.1",
			"Rev": "1121fd3e243c202482226a7afe4dcd07ffc4139a"
		},
		{
			"ImportPath": "github.com/labstack/gommon/log",
			"Comment": "v0.2.1",
			"Rev": "1121fd3e243c202482226a7afe4dcd07ffc4139a"
		},
		{
			"ImportPath": "github.com/labstack/gommon/random",
			"Comment": "v0.2.1",
			"Rev": "1121fd3e243c202482226a7afe4dcd07ffc4139a"
		},
		{
			"ImportPath": "github.com/liip/sheriff",
			"Comment": "0.0.1-7-g0f365b0",
			"Rev": "0f365b045edf2122635a30ba0a33f262ffa6bc08"
		},
		{
			"ImportPath": "github.com/magiconair/properties",
			"Comment": "v1.7.0-16-gb3b15ef",
			"Rev": "b3b15ef068fd0b17ddf408a23669f20811d194d2"
		},
		{
			"ImportPath": "github.com/mattn/go-colorable",
			"Comment": "v0.0.7-24-gded68f7",
			"Rev": "ded68f7a9561c023e790de24279db7ebf473ea80"
		},
		{
			"ImportPath": "github.com/mattn/go-isatty",
			"Comment": "v0.0.2",
			"Rev": "fc9e8d8ef48496124e79ae0df75490096eccf6fe"
		},
		{
			"ImportPath": "github.com/mitchellh/mapstructure",
			"Rev": "db1efb556f84b25a0a13a04aad883943538ad2e0"
		},
		{
			"ImportPath": "github.com/pelletier/go-buffruneio",
			"Rev": "df1e16fde7fc330a0ca68167c23bf7ed6ac31d6d"
		},
		{
			"ImportPath": "github.com/pelletier/go-toml",
			"Comment": "v0.4.0-6-gd1fa211",
			"Rev": "d1fa2118c12c44e4f5004da216d1efad10cb4924"
		},
		{
			"ImportPath": "github.com/spf13/afero",
			"Rev": "9be650865eab0c12963d8753212f4f9c66cdcf12"
		},
		{
			"ImportPath": "github.com/spf13/afero/mem",
			"Rev": "9be650865eab0c12963d8753212f4f9c66cdcf12"
		},
		{
			"ImportPath": "github.com/spf13/cast",
			"Rev": "d1139bab1c07d5ad390a65e7305876b3c1a8370b"
		},
		{
			"ImportPath": "github.com/spf13/jwalterweatherman",
			"Rev": "fa7ca7e836cf3a8bb4ebf799f472c12d7e903d66"
		},
		{
			"ImportPath": "github.com/spf13/pflag",
			"Rev": "9ff6c6923cfffbcd502984b8e0c80539a94968b7"
		},
		{
			"ImportPath": "github.com/spf13/viper",
			"Rev": "7538d73b4eb9511d85a9f1dfef202eeb8ac260f4"
		},
		{
			"ImportPath": "github.com/valyala/bytebufferpool",
			"Rev": "e746df99fe4a3986f4d4f79e13c1e0117ce9c2f7"
		},
		{
			"ImportPath": "github.com/valyala/fasttemplate",
			"Rev": "dcecefd839c4193db0d35b88ec65b4c12d360ab0"
		},
		{
			"ImportPath": "go.uber.org/atomic",
			"Comment": "v1.2.0-9-g70bd126",
			"Rev": "70bd1261d36be490ebd22a62b385a3c5d23b6240"
		},
		{
			"ImportPath": "go.uber.org/multierr",
			"Comment": "v1.1.0",
			"Rev": "3c4937480c32f4c13a875a1829af76c98ca3d40a"
		},
		{
			"ImportPath": "go.uber.org/zap",
			"Comment": "v1.5.0-6-g416e66a",
			"Rev": "416e66ad83ebde35df0e09f02e65ac149e193b0e"
		},
		{
			"ImportPath": "go.uber.org/zap/buffer",
			"Comment": "v1.5.0-6-g416e66a",
			"Rev": "416e66ad83ebde35df0e09f02e65ac149e193b0e"
		},
		{
			"ImportPath": "go.uber.org/zap/internal/bufferpool",
			"Comment": "v1.5.0-6-g416e66a",
			"Rev": "416e66ad83ebde35df0e09f02e65ac149e193b0e"
		},
		{
			"ImportPath": "go.uber.org/zap/internal/color",
			"Comment": "v1.5.0-6-g416e66a",
			"Rev": "416e66ad83ebde35df0e09f02e65ac149e193b0e"
		},
		{
			"ImportPath": "go.uber.org/zap/internal/exit",
			"Comment": "v1.5.0-6-g416e66a",
			"Rev": "416e66ad83ebde35df0e09f02e65ac149e193b0e"
		},
		{
			"ImportPath": "go.uber.org/zap/zapcore",
			"Comment": "v1.5.0-6-g416e66a",
			"Rev": "416e66ad83ebde35df0e09f02e65ac149e193b0e"
		},
		{
			"ImportPath": "golang.org/x/crypto/acme",
			"Rev": "122d919ec1efcfb58483215da23f815853e24b81"
		},
		{
			"ImportPath": "golang.org/x/crypto/acme/autocert",
			"Rev": "122d919ec1efcfb58483215da23f815853e24b81"
		},
		{
			"ImportPath": "golang.org/x/crypto/bcrypt",
			"Rev": "122d919ec1efcfb58483215da23f815853e24b81"
		},
		{
			"ImportPath": "golang.org/x/crypto/blowfish",
			"Rev": "122d919ec1efcfb58483215da23f815853e24b81"
		},
		{
			"ImportPath": "golang.org/x/sys/unix",
			"Rev": "075e574b89e4c2d22f2286a7e2b919519c6f3547"
		},
		{
			"ImportPath": "golang.org/x/text/transform",
			"Rev": "dafb3384ad25363d928a9e97ce4ad3a2f0667e34"
		},
		{
			"ImportPath": "golang.org/x/text/unicode/norm",
			"Rev": "dafb3384ad25363d928a9e97ce4ad3a2f0667e34"
		},
		{
			"ImportPath": "gopkg.in/alexcesaro/statsd.v2",
			"Comment": "v2.0.0",
			"Rev": "7fea3f0d2fab1ad973e641e51dba45443a311a90"
		},
		{
			"ImportPath": "gopkg.in/go-playground/validator.v9",
			"Comment": "v9.7.0",
			"Rev": "a021b2ec9a8a8bb970f3f15bc42617cb520e8a64"
		},
		{
			"ImportPath": "gopkg.in/mgo.v2",
			"Comment": "r2016.08.01-5-g3f83fa5",
			"Rev": "3f83fa5005286a7fe593b055f0d7771a7dce4655"
		},
		{
			"ImportPath": "gopkg.in/mgo.v2/bson",
			"Comment": "r2016.08.01-5-g3f83fa5",
			"Rev": "3f83fa5005286a7fe593b055f0d7771a7dce4655"
		},
		{
			"ImportPath": "gopkg.in/mgo.v2/internal/json",
			"Comment": "r2016.08.01-5-g3f83fa5",
			"Rev": "3f83fa5005286a7fe593b055f0d7771a7dce4655"
		},
		{
			"ImportPath": "gopkg.in/mgo.v2/internal/sasl",
			"Comment": "r2016.08.01-5-g3f83fa5",
			"Rev": "3f83fa5005286a7fe593b055f0d7771a7dce4655"
		},
		{
			"ImportPath": "gopkg.in/mgo.v2/internal/scram",
			"Comment": "r2016.08.01-5-g3f83fa5",
			"Rev": "3f83fa5005286a7fe593b055f0d7771a7dce4655"
		},
		{
			"ImportPath": "gopkg.in/yaml.v2",
			"Rev": "a3f3340b5840cee44f372bddb5880fcbc419b46a"
		}
	]
}
